[gd_scene load_steps=3 format=2]

[ext_resource path="res://icon.png" type="Texture" id=1]
[ext_resource path="res://Scripts/P_Bullet.gd" type="Script" id=2]

[node name="P_Bullet" type="Node2D"]
scale = Vector2( 0.1, 0.1 )
script = ExtResource( 2 )

[node name="Sprite" type="Sprite" parent="."]
modulate = Color( 0, 0.164706, 0.423529, 1 )
texture = ExtResource( 1 )

[node name="RayCast2D" type="RayCast2D" parent="."]
position = Vector2( -30, -30 )
enabled = true
cast_to = Vector2( 55, 55 )
collide_with_areas = true
collide_with_bodies = false

[node name="VisibilityNotifier2D" type="VisibilityNotifier2D" parent="."]

[node name="Timer" type="Timer" parent="."]
[connection signal="screen_exited" from="VisibilityNotifier2D" to="." method="screen_exited"]
